데이터 사이언스
…
Arthur
45
1010
1996
06
17

storms <- storms %>% 
  mutate(date = lubridate::make_date(year, month, day)) %>% 
  select(name, date, wind, pressure, year, month, day)

separate(storms, date, c("year", "month", "day"), sep = "-")

# A tibble: 10,010 x 6
   name  year  month day    wind pressure
   <chr> <chr> <chr> <chr> <int>    <int>
 1 Amy   1975  06    27       25     1013
 2 Amy   1975  06    27       25     1013
 3 Amy   1975  06    27       25     1013
 4 Amy   1975  06    27       25     1013
 5 Amy   1975  06    28       25     1012
 6 Amy   1975  06    28       25     1012
 7 Amy   1975  06    28       25     1011
 8 Amy   1975  06    28       30     1006
 9 Amy   1975  06    29       35     1004
10 Amy   1975  06    29       40     1002
# ... with 10,000 more rows

unite(storms, "kdate", year, month, day, sep = "-")

# A tibble: 10,010 x 5
   name  date        wind pressure kdate    
   <chr> <date>     <int>    <int> <chr>    
 1 Amy   1975-06-27    25     1013 1975-6-27
 2 Amy   1975-06-27    25     1013 1975-6-27
 3 Amy   1975-06-27    25     1013 1975-6-27
 4 Amy   1975-06-27    25     1013 1975-6-27
 5 Amy   1975-06-28    25     1012 1975-6-28
 6 Amy   1975-06-28    25     1012 1975-6-28
 7 Amy   1975-06-28    25     1011 1975-6-28
 8 Amy   1975-06-28    30     1006 1975-6-28
 9 Amy   1975-06-29    35     1004 1975-6-29
10 Amy   1975-06-29    40     1002 1975-6-29
# ... with 10,000 more rows
…
Allison
1005

Ana
1013

Arlene
1010

Arthur
1010

storms %>% select(wind, pressure)

# A tibble: 10,010 x 2
    wind pressure
   <int>    <int>
 1    25     1013
 2    25     1013
 3    25     1013
 4    25     1013
 5    25     1012
 6    25     1012
 7    25     1011
 8    30     1006
 9    35     1004
10    40     1002
# ... with 10,000 more rows

select(storms, -name)

# A tibble: 10,010 x 6
   date        wind pressure  year month   day
   <date>     <int>    <int> <dbl> <dbl> <int>
 1 1975-06-27    25     1013  1975     6    27
 2 1975-06-27    25     1013  1975     6    27
 3 1975-06-27    25     1013  1975     6    27
 4 1975-06-27    25     1013  1975     6    27
 5 1975-06-28    25     1012  1975     6    28
 6 1975-06-28    25     1012  1975     6    28
 7 1975-06-28    25     1011  1975     6    28
 8 1975-06-28    30     1006  1975     6    28
 9 1975-06-29    35     1004  1975     6    29
10 1975-06-29    40     1002  1975     6    29
# ... with 10,000 more rows

select(storms, wind:date)

# A tibble: 10,010 x 2
    wind date      
   <int> <date>    
 1    25 1975-06-27
 2    25 1975-06-27
 3    25 1975-06-27
 4    25 1975-06-27
 5    25 1975-06-28
 6    25 1975-06-28
 7    25 1975-06-28
 8    30 1975-06-28
 9    35 1975-06-29
10    40 1975-06-29
# ... with 10,000 more rows
…
Allison
65
1005
1995-06-03

Arlene
50
1010
1999-06-11

storms 태풍 허리케인 데이터에서 관측점을 필터링한다. filter()를 사용한다.

filter(storms, wind >= 50)

# A tibble: 4,861 x 7
   name  date        wind pressure  year month   day
   <chr> <date>     <int>    <int> <dbl> <dbl> <int>
 1 Amy   1975-06-29    50      998  1975     6    29
 2 Amy   1975-06-30    50      998  1975     6    30
 3 Amy   1975-06-30    55      998  1975     6    30
 4 Amy   1975-06-30    60      987  1975     6    30
 5 Amy   1975-06-30    60      987  1975     6    30
 6 Amy   1975-07-01    60      984  1975     7     1
 7 Amy   1975-07-01    60      984  1975     7     1
 8 Amy   1975-07-01    60      984  1975     7     1
 9 Amy   1975-07-01    60      984  1975     7     1
10 Amy   1975-07-02    60      984  1975     7     2
# ... with 4,851 more rows

filter(storms, wind >= 50, name %in% c("Alberto", "Alex", "Allison"))

# A tibble: 118 x 7
   name    date        wind pressure  year month   day
   <chr>   <date>     <int>    <int> <dbl> <dbl> <int>
 1 Alberto 1982-06-03    50      995  1982     6     3
 2 Alberto 1982-06-03    75      985  1982     6     3
 3 Alberto 1982-06-04    65      992  1982     6     4
 4 Alberto 1982-06-04    55      998  1982     6     4
 5 Alberto 1994-07-03    50      997  1994     7     3
 6 Alberto 1994-07-03    55      993  1994     7     3
 7 Alberto 1994-07-03    55      993  1994     7     3
 8 Allison 1995-06-04    50      997  1995     6     4
 9 Allison 1995-06-04    60      995  1995     6     4
10 Allison 1995-06-04    65      987  1995     6     4
# ... with 108 more rows
…
Arlene
50
1010
1999-06-11
20.200000

Arthur
45
1010
1996-06-17
22.444444

mutate(storms, ratio = pressure / wind)

# A tibble: 10,010 x 8
   name  date        wind pressure  year month   day ratio
   <chr> <date>     <int>    <int> <dbl> <dbl> <int> <dbl>
 1 Amy   1975-06-27    25     1013  1975     6    27  40.5
 2 Amy   1975-06-27    25     1013  1975     6    27  40.5
 3 Amy   1975-06-27    25     1013  1975     6    27  40.5
 4 Amy   1975-06-27    25     1013  1975     6    27  40.5
 5 Amy   1975-06-28    25     1012  1975     6    28  40.5
 6 Amy   1975-06-28    25     1012  1975     6    28  40.5
 7 Amy   1975-06-28    25     1011  1975     6    28  40.4
 8 Amy   1975-06-28    30     1006  1975     6    28  33.5
 9 Amy   1975-06-29    35     1004  1975     6    29  28.7
10 Amy   1975-06-29    40     1002  1975     6    29  25.0
# ... with 10,000 more rows

mutate(storms, ratio = pressure / wind, inverse = ratio^-1)

# A tibble: 10,010 x 9
   name  date        wind pressure  year month   day ratio inverse
   <chr> <date>     <int>    <int> <dbl> <dbl> <int> <dbl>   <dbl>
 1 Amy   1975-06-27    25     1013  1975     6    27  40.5  0.0247
 2 Amy   1975-06-27    25     1013  1975     6    27  40.5  0.0247
 3 Amy   1975-06-27    25     1013  1975     6    27  40.5  0.0247
 4 Amy   1975-06-27    25     1013  1975     6    27  40.5  0.0247
 5 Amy   1975-06-28    25     1012  1975     6    28  40.5  0.0247
 6 Amy   1975-06-28    25     1012  1975     6    28  40.5  0.0247
 7 Amy   1975-06-28    25     1011  1975     6    28  40.4  0.0247
 8 Amy   1975-06-28    30     1006  1975     6    28  33.5  0.0298
 9 Amy   1975-06-29    35     1004  1975     6    29  28.7  0.0349
10 Amy   1975-06-29    40     1002  1975     6    29  25.0  0.0399
# ... with 10,000 more rows
…
Allison
65
1005
1995-06-03

Alberto
110
1007
2000-08-03

arrange(storms, wind)

# A tibble: 10,010 x 7
   name      date        wind pressure  year month   day
   <chr>     <date>     <int>    <int> <dbl> <dbl> <int>
 1 Bonnie    1986-06-28    10     1013  1986     6    28
 2 Bonnie    1986-06-28    10     1012  1986     6    28
 3 AL031987  1987-08-16    10     1014  1987     8    16
 4 AL031987  1987-08-17    10     1015  1987     8    17
 5 AL031987  1987-08-17    10     1015  1987     8    17
 6 Alberto   1994-07-07    10     1012  1994     7     7
 7 Alberto   1994-07-07    10     1012  1994     7     7
 8 Alberto   1994-07-07    10     1012  1994     7     7
 9 Alberto   1994-07-07    10     1013  1994     7     7
10 Claudette 1979-07-27    15     1007  1979     7    27
# ... with 10,000 more rows

arrange(storms, desc(wind))

# A tibble: 10,010 x 7
   name    date        wind pressure  year month   day
   <chr>   <date>     <int>    <int> <dbl> <dbl> <int>
 1 Gilbert 1988-09-14   160      888  1988     9    14
 2 Wilma   2005-10-19   160      882  2005    10    19
 3 Gilbert 1988-09-14   155      889  1988     9    14
 4 Mitch   1998-10-26   155      905  1998    10    26
 5 Mitch   1998-10-27   155      910  1998    10    27
 6 Rita    2005-09-22   155      895  2005     9    22
 7 Rita    2005-09-22   155      897  2005     9    22
 8 Anita   1977-09-02   150      926  1977     9     2
 9 David   1979-08-30   150      924  1979     8    30
10 David   1979-08-31   150      926  1979     8    31
# ... with 10,000 more rows

arrange(storms, wind, date)

# A tibble: 10,010 x 7
   name      date        wind pressure  year month   day
   <chr>     <date>     <int>    <int> <dbl> <dbl> <int>
 1 Bonnie    1986-06-28    10     1013  1986     6    28
 2 Bonnie    1986-06-28    10     1012  1986     6    28
 3 AL031987  1987-08-16    10     1014  1987     8    16
 4 AL031987  1987-08-17    10     1015  1987     8    17
 5 AL031987  1987-08-17    10     1015  1987     8    17
 6 Alberto   1994-07-07    10     1012  1994     7     7
 7 Alberto   1994-07-07    10     1012  1994     7     7
 8 Alberto   1994-07-07    10     1012  1994     7     7
 9 Alberto   1994-07-07    10     1013  1994     7     7
10 Claudette 1979-07-27    15     1007  1979     7    27
# ... with 10,000 more rows
…
worst_countries <- gapminder_window %>% 
  top_n(5, wt=-difference) %>% 
  pull(country)

gapminder_window %>% 
  filter(country %in% worst_countries) %>% 
  arrange(difference)

# A tibble: 60 x 6
   country   continent  year lifeExp lifeExp_lag difference
   <fct>     <fct>     <int>   <dbl>       <dbl>      <dbl>
 1 Rwanda    Africa     1992    23.6        44.0     -20.4 
 2 Zimbabwe  Africa     1997    46.8        60.4     -13.6 
 3 Lesotho   Africa     2002    44.6        55.6     -11.0 
 4 Swaziland Africa     2002    43.9        54.3     -10.4 
 5 Botswana  Africa     1997    52.6        62.7     -10.2 
 6 Zimbabwe  Africa     2002    40.0        46.8      -6.82
 7 Botswana  Africa     2002    46.6        52.6      -5.92
 8 Swaziland Africa     2007    39.6        43.9      -4.26
 9 Swaziland Africa     1997    54.3        58.5      -4.18
10 Lesotho   Africa     1997    55.6        59.7      -4.13
# ... with 50 more rows

7.3 transmute 동사

transmute 동사는 select와 mutate를 결합한 동사로 코드를 좀더 간결하게 만들 수 있다. 예를 들어, GDP를 계산하는데 인구(pop)와 일인당GDP(gdpPercap)을 곱해야 계산할 수 있는데, mutate + select를 동원하면 코드가 길어지는데 transmute를 사용하면 한줄로 깔끔하게 구할 수 있다.

select + mutate 동사 조합

gapminder %>% 
  mutate(GDP = pop * gdpPercap) %>% 
  select(continent, country, GDP)

# A tibble: 1,704 x 3
   continent country              GDP
   <fct>     <fct>              <dbl>
 1 Asia      Afghanistan  6567086330.
 2 Asia      Afghanistan  7585448670.
 3 Asia      Afghanistan  8758855797.
 4 Asia      Afghanistan  9648014150.
 5 Asia      Afghanistan  9678553274.
 6 Asia      Afghanistan 11697659231.
 7 Asia      Afghanistan 12598563401.
 8 Asia      Afghanistan 11820990309.
 9 Asia      Afghanistan 10595901589.
10 Asia      Afghanistan 14121995875.
# ... with 1,694 more rows

transmute 동사

gapminder %>% 
  transmute(continent, country, GDP = pop * gdpPercap)

# A tibble: 1,704 x 3
   continent country              GDP
   <fct>     <fct>              <dbl>
 1 Asia      Afghanistan  6567086330.
 2 Asia      Afghanistan  7585448670.
 3 Asia      Afghanistan  8758855797.
 4 Asia      Afghanistan  9648014150.
 5 Asia      Afghanistan  9678553274.
 6 Asia      Afghanistan 11697659231.
 7 Asia      Afghanistan 12598563401.
 8 Asia      Afghanistan 11820990309.
 9 Asia      Afghanistan 10595901589.
10 Asia      Afghanistan 14121995875.
# ... with 1,694 more rows
…
