…
# `ggalluvial`

`alluvial` 패키지와 `ggalluvial` 패키지 차이점은 다음과 같다.

- `alluvial` understands a variety of inputs (vectors, lists, data frames), whereas **ggalluvial** requires a single data frame;
- `alluvial` uses each variable of these inputs as a dimension of the data, whereas **ggalluvial** requires the user to specify the dimensions, either as separate aesthetics or as key-value pairs;
- `alluvial` produces both the alluvia, which link cohorts across multiple dimensions, and (what are here called) the strata, which partition the data along each dimension, in a single function; whereas **ggalluvial** relies on separate layers (stats and geoms) to produce strata, alluvia, and alluvial segments called lodes and flows.

## `wide` 폭 넓은 형태

```{r ggalluvial-titanic}
library(ggalluvial)
titanic_wide <- as_tibble(Titanic)

# # A tibble: 32 x 5
#    Class Sex    Age   Survived     n
#    <chr> <chr>  <chr> <chr>    <dbl>
#  1 1st   Male   Child No           0
#  2 2nd   Male   Child No           0
#  3 3rd   Male   Child No          35
#  4 Crew  Male   Child No           0
#  5 1st   Female Child No           0
#  6 2nd   Female Child No           0
#  7 3rd   Female Child No          17
#  8 Crew  Female Child No           0
#  9 1st   Male   Adult No         118
# 10 2nd   Male   Adult No         154
# # ... with 22 more rows
…
## `long` 긴 형태

```{r ggalluvial-titanic-long}
titanic_long <- to_lodes_form(titanic_wide,
              key = "demographic",
              axes = c("Class", "Sex", "Age"))

# # A tibble: 96 x 5
#    Survived     n alluvium demographic stratum
#    <chr>    <dbl>    <int> <fct>       <fct>  
#  1 No           0        1 Class       1st    
#  2 No           0        2 Class       2nd    
#  3 No          35        3 Class       3rd    
#  4 No           0        4 Class       Crew   
#  5 No           0        5 Class       1st    
#  6 No           0        6 Class       2nd    
#  7 No          17        7 Class       3rd    
#  8 No           0        8 Class       Crew   
#  9 No         118        9 Class       1st    
# 10 No         154       10 Class       2nd    
# # ... with 86 more rows
…
