…
~~~



~~~{.r}
lm_mod %>% augment(fit)
~~~



~~~{.output}
Source: local data frame [32 x 12]
Groups: am [2]

      am    wt   mpg  qsec  gear  .fitted   .se.fit      .resid       .hat
   <dbl> <dbl> <dbl> <dbl> <dbl>    <dbl>     <dbl>       <dbl>      <dbl>
1      0 3.215  21.4 19.44     3 3.037532 0.2481648  0.17746820 0.22627982
2      0 3.440  18.7 17.02     3 3.333202 0.2083952  0.10679845 0.15956625
3      0 3.460  18.1 20.22     3 3.742459 0.2556630 -0.28245859 0.24016026
4      0 3.570  14.3 15.84     3 4.069056 0.2070275 -0.49905571 0.15747857
5      0 3.190  24.4 20.00     4 2.659874 0.3007101  0.53012646 0.33224734
6      0 3.150  22.8 22.90     4 3.233446 0.3628134 -0.08344563 0.48365086
7      0 3.440  19.2 18.30     4 3.501444 0.2989364 -0.06144393 0.32833948
8      0 3.440  17.8 18.90     4 3.825237 0.2911555 -0.38523690 0.31146937
9      0 4.070  16.4 17.40     3 3.809474 0.1397045  0.26052626 0.07171104
10     0 3.730  17.3 17.60     3 3.655156 0.1466485  0.07484376 0.07901707
# ... with 22 more rows, and 3 more variables: .sigma <dbl>,
#   .cooksd <dbl>, .std.resid <dbl>
…
