데이터 과학
…
dplyr 동사를 순차적으로 적용시킬 경우 지연연산(lazy evaluation)이 적용되어 바로 실행되지 않고, collect를 실행할 경우 한방에 실행된다. 결국 최종 질의문 혹은 dplyr 동사들이 완성되면 collect()를 사용하여 데이터베이스에서 데이터를 쭉 끌어내서 tble_df()을 생성시키는 작업흐름을 갖추게 된다.

# 2. dplyr 동사를 순차적으로 적용하여 한방에 실행

select_sql <- dplyr::select(park_sqlite, Agency, Accident, Belts, Geolocation) 
filter_sql <- dplyr::filter(select_sql, Accident=="No" & Belts =="No")
arrange_sql <- dplyr::arrange(filter_sql, Agency)
collect(arrange_sql)

# A tibble: 1,474,096 x 4
   Agency Accident Belts Geolocation                          
   <chr>  <chr>    <chr> <chr>                                
 1 MCP    No       No    (39.0196433333333, -77.0112633333333)
 2 MCP    No       No    (38.987855, -77.078515)              
 3 MCP    No       No    (39.1817616666667, -77.2369883333333)
 4 MCP    No       No    (39.17244, -77.2059066666667)        
 5 MCP    No       No    (39.0020183333333, -77.0771633333333)
 6 MCP    No       No    (39.1626433333333, -77.2249866666667)
 7 MCP    No       No    (38.9864533333333, -77.095275)       
 8 MCP    No       No    (39.19, -77.2201916666667)           
 9 MCP    No       No    (39.0314316666667, -77.02233)        
10 MCP    No       No    (39.0333316666667, -77.1257833333333)
# … with 1,474,086 more rows
…
