…
~~~{.r}
tbl_df <- as_data_frame(HairEyeColor)

tbl_df(HairEyeColor)
~~~



~~~{.output}
# A tibble: 32 x 4
    Hair   Eye   Sex     n
   <chr> <chr> <chr> <dbl>
 1 Black Brown  Male    32
 2 Brown Brown  Male    53
 3   Red Brown  Male    10
 4 Blond Brown  Male     3
 5 Black  Blue  Male    11
 6 Brown  Blue  Male    50
 7   Red  Blue  Male    10
 8 Blond  Blue  Male    30
 9 Black Hazel  Male    10
10 Brown Hazel  Male    25
# ... with 22 more rows
…
