데이터 과학
…
miss_case_summary(BostonHousing)

# A tibble: 506 x 3
    case n_miss pct_miss
   <int>  <int>    <dbl>
 1    63      2    14.3 
 2   174      2    14.3 
 3   255      2    14.3 
 4   314      2    14.3 
 5     7      1     7.14
 6    23      1     7.14
 7    26      1     7.14
 8    34      1     7.14
 9    39      1     7.14
10    46      1     7.14
# … with 496 more rows
…
